Exploratory Data Analysis — application_train.csv
…
4 Missing data: scope and patterns

We first profile NA ammounts to see which columns have extensive NA and whether NA missing patterns are structured.

Code

# Compute NA ammounts summary per column
miss_cols <- app_train |> summarise(across(everything(), ~sum(is.na(.)))) |>
  pivot_longer(everything(), names_to = "column", values_to = "n_missing") |>
  mutate(pct_missing = n_missing / nrow(app_train) * 100) |> arrange(desc(pct_missing))

# Show top columns with missing values
head(miss_cols, 30)

# A tibble: 30 × 3
   column                   n_missing pct_missing
   <chr>                        <int>       <dbl>
 1 COMMONAREA_AVG              214865        69.9
 2 COMMONAREA_MODE             214865        69.9
 3 COMMONAREA_MEDI             214865        69.9
 4 NONLIVINGAPARTMENTS_AVG     213514        69.4
 5 NONLIVINGAPARTMENTS_MODE    213514        69.4
 6 NONLIVINGAPARTMENTS_MEDI    213514        69.4
 7 FONDKAPREMONT_MODE          210295        68.4
 8 LIVINGAPARTMENTS_AVG        210199        68.4
 9 LIVINGAPARTMENTS_MODE       210199        68.4
10 LIVINGAPARTMENTS_MEDI       210199        68.4
# ℹ 20 more rows
…
